<define-tag pagetitle>DSA-3043-1 tryton-server</define-tag>
<define-tag report_date>2014-10-04</define-tag>
<define-tag secrefs>CVE-2014-6633</define-tag>
<define-tag packages>tryton-server</define-tag>
<define-tag isvulnerable>yes</define-tag>
<define-tag fixed>yes</define-tag>
<define-tag fixed-section>no</define-tag>

#use wml::debian::security



</dl>
