<define-tag pagetitle>DLA-1069-1 tenshi</define-tag>
<define-tag report_date>2017-8-27</define-tag>
<define-tag secrefs>CVE-2017-11746 Bug#871321</define-tag>
<define-tag packages>tenshi</define-tag>
<define-tag isvulnerable>yes</define-tag>
<define-tag fixed>yes</define-tag>
<define-tag fixed-section>no</define-tag>

#use wml::debian::security

