<define-tag pagetitle>DLA-877-1 tiff</define-tag>
<define-tag report_date>2017-3-28</define-tag>
<define-tag secrefs>CVE-2016-10266 CVE-2016-10267 CVE-2016-10268 CVE-2016-10269</define-tag>
<define-tag packages>tiff</define-tag>
<define-tag isvulnerable>yes</define-tag>
<define-tag fixed>yes</define-tag>
<define-tag fixed-section>no</define-tag>

#use wml::debian::security

