<define-tag pagetitle>DLA-2167-1 python-bleach</define-tag>
<define-tag report_date>2020-04-01</define-tag>
<define-tag secrefs>CVE-2020-6817 Bug#955388</define-tag>
<define-tag packages>python-bleach</define-tag>
<define-tag isvulnerable>yes</define-tag>
<define-tag fixed>yes</define-tag>
<define-tag fixed-section>no</define-tag>

#use wml::debian::security

