<define-tag pagetitle>DLA-1254-1 lucene-solr</define-tag>
<define-tag report_date>2018-1-21</define-tag>
<define-tag secrefs>CVE-2017-12629</define-tag>
<define-tag packages>lucene-solr</define-tag>
<define-tag isvulnerable>yes</define-tag>
<define-tag fixed>yes</define-tag>
<define-tag fixed-section>no</define-tag>

#use wml::debian::security

