<define-tag pagetitle>DLA-1307-1 clamav</define-tag>
<define-tag report_date>2018-3-16</define-tag>
<define-tag secrefs>CVE-2018-0202 CVE-2018-1000085</define-tag>
<define-tag packages>clamav</define-tag>
<define-tag isvulnerable>yes</define-tag>
<define-tag fixed>yes</define-tag>
<define-tag fixed-section>no</define-tag>

#use wml::debian::security

